…
Notice, we're left out with very few observations! Deleting rows that contain at least one missing value was not a good idea

Billboard top 200
-----------------

Sometimes omitting rows that contain NAs serves an intended purpose

Here's the list of albums that remained in the chart for the whole year in 1968:

``` r
df_billboard %>% na.omit() %>% select(Album, Artist)
```

    ## # A tibble: 27 x 2
    ##                                        Album                    Artist
    ##                                        <chr>                     <chr>
    ##  1         Magical Mystery Tour (Soundtrack)               The Beatles
    ##  2 Diana Ross And The Supremes Greatest Hits Diana Ross & The Supremes
    ##  3         Parsley, Sage, Rosemary And Thyme         Simon & Garfunkel
    ##  4                            Disraeli Gears                     Cream
    ##  5     Sgt. Pepper's Lonely Hearts Club Band               The Beatles
    ##  6                      Are You Experienced?              Jimi Hendrix
    ##  7                               Wildflowers              Judy Collins
    ##  8                         A Day In The Life            Wes Montgomery
    ##  9                        Alice's Restaurant                Soundtrack
    ## 10              By The Time I Get To Phoenix             Glen Campbell
    ## # ... with 17 more rows
…
