…
The `select` function
---------------------

We can also remove variables with `select`:

``` r
select(df_cars, -mpg)
```

    ## # A tibble: 32 x 11
    ##                   X1   cyl  disp    hp  drat    wt  qsec    vs    am  gear
    ##                <chr> <int> <dbl> <int> <dbl> <dbl> <dbl> <int> <int> <int>
    ##  1         Mazda RX4     6 160.0   110  3.90 2.620 16.46     0     1     4
    ##  2     Mazda RX4 Wag     6 160.0   110  3.90 2.875 17.02     0     1     4
    ##  3        Datsun 710     4 108.0    93  3.85 2.320 18.61     1     1     4
    ##  4    Hornet 4 Drive     6 258.0   110  3.08 3.215 19.44     1     0     3
    ##  5 Hornet Sportabout     8 360.0   175  3.15 3.440 17.02     0     0     3
    ##  6           Valiant     6 225.0   105  2.76 3.460 20.22     1     0     3
    ##  7        Duster 360     8 360.0   245  3.21 3.570 15.84     0     0     3
    ##  8         Merc 240D     4 146.7    62  3.69 3.190 20.00     1     0     4
    ##  9          Merc 230     4 140.8    95  3.92 3.150 22.90     1     0     4
    ## 10          Merc 280     6 167.6   123  3.92 3.440 18.30     1     0     4
    ## # ... with 22 more rows, and 1 more variables: carb <int>
…
The `arrange` function
----------------------

`arrange` is used for sorting the data frame by one or more variables

Example, to sort cars by mpg from lowest to highest:

``` r
arrange(df_cars, mpg)
```

    ## # A tibble: 32 x 12
    ##                     X1   mpg   cyl  disp    hp  drat    wt  qsec    vs
    ##                  <chr> <dbl> <int> <dbl> <int> <dbl> <dbl> <dbl> <int>
    ##  1  Cadillac Fleetwood  10.4     8 472.0   205  2.93 5.250 17.98     0
    ##  2 Lincoln Continental  10.4     8 460.0   215  3.00 5.424 17.82     0
    ##  3          Camaro Z28  13.3     8 350.0   245  3.73 3.840 15.41     0
    ##  4          Duster 360  14.3     8 360.0   245  3.21 3.570 15.84     0
    ##  5   Chrysler Imperial  14.7     8 440.0   230  3.23 5.345 17.42     0
    ##  6       Maserati Bora  15.0     8 301.0   335  3.54 3.570 14.60     0
    ##  7         Merc 450SLC  15.2     8 275.8   180  3.07 3.780 18.00     0
    ##  8         AMC Javelin  15.2     8 304.0   150  3.15 3.435 17.30     0
    ##  9    Dodge Challenger  15.5     8 318.0   150  2.76 3.520 16.87     0
    ## 10      Ford Pantera L  15.8     8 351.0   264  4.22 3.170 14.50     0
    ## # ... with 22 more rows, and 3 more variables: am <int>, gear <int>,
    ## #   carb <int>

The `arrange` function
----------------------

It makes more sense to show the most economical cars first

In this case, we add a minus sign to reverse the sort order:

``` r
arrange(df_cars, -mpg)
```

    ## # A tibble: 32 x 12
    ##                X1   mpg   cyl  disp    hp  drat    wt  qsec    vs    am
    ##             <chr> <dbl> <int> <dbl> <int> <dbl> <dbl> <dbl> <int> <int>
    ##  1 Toyota Corolla  33.9     4  71.1    65  4.22 1.835 19.90     1     1
    ##  2       Fiat 128  32.4     4  78.7    66  4.08 2.200 19.47     1     1
    ##  3    Honda Civic  30.4     4  75.7    52  4.93 1.615 18.52     1     1
    ##  4   Lotus Europa  30.4     4  95.1   113  3.77 1.513 16.90     1     1
    ##  5      Fiat X1-9  27.3     4  79.0    66  4.08 1.935 18.90     1     1
    ##  6  Porsche 914-2  26.0     4 120.3    91  4.43 2.140 16.70     0     1
    ##  7      Merc 240D  24.4     4 146.7    62  3.69 3.190 20.00     1     0
    ##  8     Datsun 710  22.8     4 108.0    93  3.85 2.320 18.61     1     1
    ##  9       Merc 230  22.8     4 140.8    95  3.92 3.150 22.90     1     0
    ## 10  Toyota Corona  21.5     4 120.1    97  3.70 2.465 20.01     1     0
    ## # ... with 22 more rows, and 2 more variables: gear <int>, carb <int>

The `arrange` function
----------------------

We can also sort by multiple variables

Example, by transmission type (am) and weight (wt):

``` r
arrange(df_cars, am, wt)
```

    ## # A tibble: 32 x 12
    ##                   X1   mpg   cyl  disp    hp  drat    wt  qsec    vs    am
    ##                <chr> <dbl> <int> <dbl> <int> <dbl> <dbl> <dbl> <int> <int>
    ##  1     Toyota Corona  21.5     4 120.1    97  3.70 2.465 20.01     1     0
    ##  2          Merc 230  22.8     4 140.8    95  3.92 3.150 22.90     1     0
    ##  3         Merc 240D  24.4     4 146.7    62  3.69 3.190 20.00     1     0
    ##  4    Hornet 4 Drive  21.4     6 258.0   110  3.08 3.215 19.44     1     0
    ##  5       AMC Javelin  15.2     8 304.0   150  3.15 3.435 17.30     0     0
    ##  6 Hornet Sportabout  18.7     8 360.0   175  3.15 3.440 17.02     0     0
    ##  7          Merc 280  19.2     6 167.6   123  3.92 3.440 18.30     1     0
    ##  8         Merc 280C  17.8     6 167.6   123  3.92 3.440 18.90     1     0
    ##  9           Valiant  18.1     6 225.0   105  2.76 3.460 20.22     1     0
    ## 10  Dodge Challenger  15.5     8 318.0   150  2.76 3.520 16.87     0     0
    ## # ... with 22 more rows, and 2 more variables: gear <int>, carb <int>
…
The `group_by` function
-----------------------

Note that on its own, `group_by` does not produce an output that is any different from the input:

``` r
group_by(df_cars, cyl)
```

    ## # A tibble: 32 x 12
    ## # Groups:   cyl [3]
    ##                   X1   mpg   cyl  disp    hp  drat    wt  qsec    vs    am
    ##                <chr> <dbl> <int> <dbl> <int> <dbl> <dbl> <dbl> <int> <int>
    ##  1         Mazda RX4  21.0     6 160.0   110  3.90 2.620 16.46     0     1
    ##  2     Mazda RX4 Wag  21.0     6 160.0   110  3.90 2.875 17.02     0     1
    ##  3        Datsun 710  22.8     4 108.0    93  3.85 2.320 18.61     1     1
    ##  4    Hornet 4 Drive  21.4     6 258.0   110  3.08 3.215 19.44     1     0
    ##  5 Hornet Sportabout  18.7     8 360.0   175  3.15 3.440 17.02     0     0
    ##  6           Valiant  18.1     6 225.0   105  2.76 3.460 20.22     1     0
    ##  7        Duster 360  14.3     8 360.0   245  3.21 3.570 15.84     0     0
    ##  8         Merc 240D  24.4     4 146.7    62  3.69 3.190 20.00     1     0
    ##  9          Merc 230  22.8     4 140.8    95  3.92 3.150 22.90     1     0
    ## 10          Merc 280  19.2     6 167.6   123  3.92 3.440 18.30     1     0
    ## # ... with 22 more rows, and 2 more variables: gear <int>, carb <int>
…
